Hwk_4: Data Manipulation
…
What are the two main differences between a tibble and a data.frame?

Tibbles don’t convert strings to factors automatically

Tibbles print a cleaner preview with just the first few rows

Rewrite the nested function using the chaining operator (%>%):

as_tibble(iris) %>%
  select(starts_with("Petal"), Species) %>%
  filter(Petal.Length < 1.55) %>%
  arrange(Species)

# A tibble: 37 × 3
   Petal.Length Petal.Width Species
          <dbl>       <dbl> <fct>  
 1          1.4         0.2 setosa 
 2          1.4         0.2 setosa 
 3          1.3         0.2 setosa 
 4          1.5         0.2 setosa 
 5          1.4         0.2 setosa 
 6          1.4         0.3 setosa 
 7          1.5         0.2 setosa 
 8          1.4         0.2 setosa 
 9          1.5         0.1 setosa 
10          1.5         0.2 setosa 
# ℹ 27 more rows
…
# View transformed data
glass_data

# A tibble: 214 × 11
      Id    RI    Na    Mg    Al    Si     K    Ca    Ba    Fe Type_of_glass    
   <dbl> <dbl> <dbl> <dbl> <dbl> <dbl> <dbl> <dbl> <dbl> <dbl> <chr>            
 1     1  1.52  13.6  4.49  1.1   71.8  0.06  8.75     0  0    building_windows…
 2     2  1.52  13.9  3.6   1.36  72.7  0.48  7.83     0  0    building_windows…
 3     3  1.52  13.5  3.55  1.54  73.0  0.39  7.78     0  0    building_windows…
 4     4  1.52  13.2  3.69  1.29  72.6  0.57  8.22     0  0    building_windows…
 5     5  1.52  13.3  3.62  1.24  73.1  0.55  8.07     0  0    building_windows…
 6     6  1.52  12.8  3.61  1.62  73.0  0.64  8.07     0  0.26 building_windows…
 7     7  1.52  13.3  3.6   1.14  73.1  0.58  8.17     0  0    building_windows…
 8     8  1.52  13.2  3.61  1.05  73.2  0.57  8.24     0  0    building_windows…
 9     9  1.52  14.0  3.58  1.37  72.1  0.56  8.3      0  0    building_windows…
10    10  1.52  13    3.6   1.36  73.0  0.57  8.4      0  0.11 building_windows…
# ℹ 204 more rows
…
